loongarch_cpu.sim/sim_1/behav/xsim/wave.vcd
$date
   Wed Mar 11 14:39:32 2026
$end

$version
  2024.1
  $dumpfile ("wave.vcd") 
$end

$timescale
  1ps
$end

$scope module tb_top $end
$var reg 1 ! clk $end
$var reg 1 " resetn $end
$var wire 1 # inst_sram_en $end
$var wire 4 $ inst_sram_we [3:0] $end
$var wire 32 % inst_sram_addr [31:0] $end
$var wire 32 & inst_sram_wdata [31:0] $end
$var wire 32 ' inst_sram_rdata [31:0] $end
$var wire 1 ( data_sram_en $end
$var wire 4 ) data_sram_we [3:0] $end
$var wire 32 * data_sram_addr [31:0] $end
$var wire 32 + data_sram_wdata [31:0] $end
$var wire 32 , data_sram_rdata [31:0] $end
$var wire 32 - debug_wb_pc [31:0] $end
$var wire 4 . debug_wb_rf_we [3:0] $end
$var wire 5 / debug_wb_rf_wnum [4:0] $end
$var wire 32 0 debug_wb_rf_wdata [31:0] $end
$scope module u_cpu $end
$var wire 1 1 clk $end
$var wire 1 2 resetn $end
$var wire 1 # inst_sram_en $end
$var wire 4 $ inst_sram_we [3:0] $end
$var wire 32 % inst_sram_addr [31:0] $end
$var wire 32 & inst_sram_wdata [31:0] $end
$var wire 32 ' inst_sram_rdata [31:0] $end
$var wire 1 ( data_sram_en $end
$var wire 4 ) data_sram_we [3:0] $end
$var wire 32 * data_sram_addr [31:0] $end
$var wire 32 + data_sram_wdata [31:0] $end
$var wire 32 , data_sram_rdata [31:0] $end
$var wire 32 - debug_wb_pc [31:0] $end
$var wire 4 . debug_wb_rf_we [3:0] $end
$var wire 5 / debug_wb_rf_wnum [4:0] $end
$var wire 32 0 debug_wb_rf_wdata [31:0] $end
$var wire 1 3 reset $end
$var reg 32 4 pc [31:0] $end
$var wire 32 5 instruction [31:0] $end
$upscope $end
$scope module u_inst_ram $end
$var wire 1 6 clk $end
$var wire 1 # en $end
$var wire 4 $ we [3:0] $end
$var wire 32 % addr [31:0] $end
$var wire 32 & wdata [31:0] $end
$var reg 32 7 rdata [31:0] $end
$var wire 14 8 word_addr [13:0] $end
$upscope $end
$scope module u_data_ram $end
$var wire 1 9 clk $end
$var wire 1 ( en $end
$var wire 4 ) we [3:0] $end
$var wire 32 * addr [31:0] $end
$var wire 32 + wdata [31:0] $end
$var reg 32 : rdata [31:0] $end
$var wire 14 ; word_addr [13:0] $end
$upscope $end
$upscope $end
$enddefinitions $end

#0
$dumpvars
0!
0"
0#
b0 $
bx %
b0 &
bx '
0(
b0 )
b0 *
b0 +
bx ,
bx -
b0 .
b0 /
b0 0
01
02
13
bx 4
bx 5
06
bx 7
bx 8
09
bx :
b0 ;
$end

#5000
1!
b11100000000000000000000000000 %
b11011111111111111111111111100 -
11
b11011111111111111111111111100 4
16
b0 8
19

#10000
0!
01
06
09

#15000
1!
11
16
19

#20000
0!
01
06
09

#25000
1!
11
16
19

#30000
0!
01
06
09

#35000
1!
11
16
19

#40000
0!
01
06
09

#45000
1!
11
16
19

#50000
0!
01
06
09

#55000
1!
11
16
19

#60000
0!
01
06
09

#65000
1!
11
16
19

#70000
0!
01
06
09

#75000
1!
11
16
19

#80000
0!
01
06
09

#85000
1!
11
16
19

#90000
0!
01
06
09

#95000
1!
11
16
19

#100000
0!
1"
1#
01
12
03
06
09

#105000
1!
b11100000000000000000000000100 %
b11100000000000000000000000000 -
11
b11100000000000000000000000000 4
16
b1 8
19

#110000
0!
01
06
09

#115000
1!
b11100000000000000000000001000 %
b11100000000000000000000000100 -
11
b11100000000000000000000000100 4
16
b10 8
19

#120000
0!
01
06
09

#125000
1!
b11100000000000000000000001100 %
b11100000000000000000000001000 -
11
b11100000000000000000000001000 4
16
b11 8
19

#130000
0!
01
06
09

#135000
1!
b11100000000000000000000010000 %
b11100000000000000000000001100 -
11
b11100000000000000000000001100 4
16
b100 8
19

#140000
0!
01
06
09

#145000
1!
b11100000000000000000000010100 %
b11100000000000000000000010000 -
11
b11100000000000000000000010000 4
16
b101 8
19

#150000
0!
01
06
09

#155000
1!
b11100000000000000000000011000 %
b11100000000000000000000010100 -
11
b11100000000000000000000010100 4
16
b110 8
19

#160000
0!
01
06
09

#165000
1!
b11100000000000000000000011100 %
b11100000000000000000000011000 -
11
b11100000000000000000000011000 4
16
b111 8
19

#170000
0!
01
06
09

#175000
1!
b11100000000000000000000100000 %
b11100000000000000000000011100 -
11
b11100000000000000000000011100 4
16
b1000 8
19

#180000
0!
01
06
09

#185000
1!
b11100000000000000000000100100 %
b11100000000000000000000100000 -
11
b11100000000000000000000100000 4
16
b1001 8
19

#190000
0!
01
06
09

#195000
1!
b11100000000000000000000101000 %
b11100000000000000000000100100 -
11
b11100000000000000000000100100 4
16
b1010 8
19

#200000
0!
01
06
09

#205000
1!
b11100000000000000000000101100 %
b11100000000000000000000101000 -
11
b11100000000000000000000101000 4
16
b1011 8
19

#210000
0!
01
06
09

#215000
1!
b11100000000000000000000110000 %
b11100000000000000000000101100 -
11
b11100000000000000000000101100 4
16
b1100 8
19

#220000
0!
01
06
09

#225000
1!
b11100000000000000000000110100 %
b11100000000000000000000110000 -
11
b11100000000000000000000110000 4
16
b1101 8
19

#230000
0!
01
06
09

#235000
1!
b11100000000000000000000111000 %
b11100000000000000000000110100 -
11
b11100000000000000000000110100 4
16
b1110 8
19

#240000
0!
01
06
09

#245000
1!
b11100000000000000000000111100 %
b11100000000000000000000111000 -
11
b11100000000000000000000111000 4
16
b1111 8
19

#250000
0!
01
06
09

#255000
1!
b11100000000000000000001000000 %
b11100000000000000000000111100 -
11
b11100000000000000000000111100 4
16
b10000 8
19

#260000
0!
01
06
09

#265000
1!
b11100000000000000000001000100 %
b11100000000000000000001000000 -
11
b11100000000000000000001000000 4
16
b10001 8
19

#270000
0!
01
06
09

#275000
1!
b11100000000000000000001001000 %
b11100000000000000000001000100 -
11
b11100000000000000000001000100 4
16
b10010 8
19

#280000
0!
01
06
09

#285000
1!
b11100000000000000000001001100 %
b11100000000000000000001001000 -
11
b11100000000000000000001001000 4
16
b10011 8
19

#290000
0!
01
06
09

#295000
1!
b11100000000000000000001010000 %
b11100000000000000000001001100 -
11
b11100000000000000000001001100 4
16
b10100 8
19

#300000
0!
01
06
09

#305000
1!
b11100000000000000000001010100 %
b11100000000000000000001010000 -
11
b11100000000000000000001010000 4
16
b10101 8
19

#310000
0!
01
06
09

#315000
1!
b11100000000000000000001011000 %
b11100000000000000000001010100 -
11
b11100000000000000000001010100 4
16
b10110 8
19

#320000
0!
01
06
09

#325000
1!
b11100000000000000000001011100 %
b11100000000000000000001011000 -
11
b11100000000000000000001011000 4
16
b10111 8
19

#330000
0!
01
06
09

#335000
1!
b11100000000000000000001100000 %
b11100000000000000000001011100 -
11
b11100000000000000000001011100 4
16
b11000 8
19

#340000
0!
01
06
09

#345000
1!
b11100000000000000000001100100 %
b11100000000000000000001100000 -
11
b11100000000000000000001100000 4
16
b11001 8
19

#350000
0!
01
06
09

#355000
1!
b11100000000000000000001101000 %
b11100000000000000000001100100 -
11
b11100000000000000000001100100 4
16
b11010 8
19

#360000
0!
01
06
09

#365000
1!
b11100000000000000000001101100 %
b11100000000000000000001101000 -
11
b11100000000000000000001101000 4
16
b11011 8
19

#370000
0!
01
06
09

#375000
1!
b11100000000000000000001110000 %
b11100000000000000000001101100 -
11
b11100000000000000000001101100 4
16
b11100 8
19

#380000
0!
01
06
09

#385000
1!
b11100000000000000000001110100 %
b11100000000000000000001110000 -
11
b11100000000000000000001110000 4
16
b11101 8
19

#390000
0!
01
06
09

#395000
1!
b11100000000000000000001111000 %
b11100000000000000000001110100 -
11
b11100000000000000000001110100 4
16
b11110 8
19

#400000
0!
01
06
09

#405000
1!
b11100000000000000000001111100 %
b11100000000000000000001111000 -
11
b11100000000000000000001111000 4
16
b11111 8
19

#410000
0!
01
06
09

#415000
1!
b11100000000000000000010000000 %
b11100000000000000000001111100 -
11
b11100000000000000000001111100 4
16
b100000 8
19

#420000
0!
01
06
09

#425000
1!
b11100000000000000000010000100 %
b11100000000000000000010000000 -
11
b11100000000000000000010000000 4
16
b100001 8
19

#430000
0!
01
06
09

#435000
1!
b11100000000000000000010001000 %
b11100000000000000000010000100 -
11
b11100000000000000000010000100 4
16
b100010 8
19

#440000
0!
01
06
09

#445000
1!
b11100000000000000000010001100 %
b11100000000000000000010001000 -
11
b11100000000000000000010001000 4
16
b100011 8
19

#450000
0!
01
06
09

#455000
1!
b11100000000000000000010010000 %
b11100000000000000000010001100 -
11
b11100000000000000000010001100 4
16
b100100 8
19

#460000
0!
01
06
09

#465000
1!
b11100000000000000000010010100 %
b11100000000000000000010010000 -
11
b11100000000000000000010010000 4
16
b100101 8
19

#470000
0!
01
06
09

#475000
1!
b11100000000000000000010011000 %
b11100000000000000000010010100 -
11
b11100000000000000000010010100 4
16
b100110 8
19

#480000
0!
01
06
09

#485000
1!
b11100000000000000000010011100 %
b11100000000000000000010011000 -
11
b11100000000000000000010011000 4
16
b100111 8
19

#490000
0!
01
06
09

#495000
1!
b11100000000000000000010100000 %
b11100000000000000000010011100 -
11
b11100000000000000000010011100 4
16
b101000 8
19

#500000
0!
01
06
09

#505000
1!
b11100000000000000000010100100 %
b11100000000000000000010100000 -
11
b11100000000000000000010100000 4
16
b101001 8
19

#510000
0!
01
06
09

#515000
1!
b11100000000000000000010101000 %
b11100000000000000000010100100 -
11
b11100000000000000000010100100 4
16
b101010 8
19

#520000
0!
01
06
09

#525000
1!
b11100000000000000000010101100 %
b11100000000000000000010101000 -
11
b11100000000000000000010101000 4
16
b101011 8
19

#530000
0!
01
06
09

#535000
1!
b11100000000000000000010110000 %
b11100000000000000000010101100 -
11
b11100000000000000000010101100 4
16
b101100 8
19

#540000
0!
01
06
09

#545000
1!
b11100000000000000000010110100 %
b11100000000000000000010110000 -
11
b11100000000000000000010110000 4
16
b101101 8
19

#550000
0!
01
06
09

#555000
1!
b11100000000000000000010111000 %
b11100000000000000000010110100 -
11
b11100000000000000000010110100 4
16
b101110 8
19

#560000
0!
01
06
09

#565000
1!
b11100000000000000000010111100 %
b11100000000000000000010111000 -
11
b11100000000000000000010111000 4
16
b101111 8
19

#570000
0!
01
06
09

#575000
1!
b11100000000000000000011000000 %
b11100000000000000000010111100 -
11
b11100000000000000000010111100 4
16
b110000 8
19

#580000
0!
01
06
09

#585000
1!
b11100000000000000000011000100 %
b11100000000000000000011000000 -
11
b11100000000000000000011000000 4
16
b110001 8
19

#590000
0!
01
06
09

#595000
1!
b11100000000000000000011001000 %
b11100000000000000000011000100 -
11
b11100000000000000000011000100 4
16
b110010 8
19

#600000
0!
01
06
09

#605000
1!
b11100000000000000000011001100 %
b11100000000000000000011001000 -
11
b11100000000000000000011001000 4
16
b110011 8
19

#610000
0!
01
06
09

#615000
1!
b11100000000000000000011010000 %
b11100000000000000000011001100 -
11
b11100000000000000000011001100 4
16
b110100 8
19

#620000
0!
01
06
09

#625000
1!
b11100000000000000000011010100 %
b11100000000000000000011010000 -
11
b11100000000000000000011010000 4
16
b110101 8
19

#630000
0!
01
06
09

#635000
1!
b11100000000000000000011011000 %
b11100000000000000000011010100 -
11
b11100000000000000000011010100 4
16
b110110 8
19

#640000
0!
01
06
09

#645000
1!
b11100000000000000000011011100 %
b11100000000000000000011011000 -
11
b11100000000000000000011011000 4
16
b110111 8
19

#650000
0!
01
06
09

#655000
1!
b11100000000000000000011100000 %
b11100000000000000000011011100 -
11
b11100000000000000000011011100 4
16
b111000 8
19

#660000
0!
01
06
09

#665000
1!
b11100000000000000000011100100 %
b11100000000000000000011100000 -
11
b11100000000000000000011100000 4
16
b111001 8
19

#670000
0!
01
06
09

#675000
1!
b11100000000000000000011101000 %
b11100000000000000000011100100 -
11
b11100000000000000000011100100 4
16
b111010 8
19

#680000
0!
01
06
09

#685000
1!
b11100000000000000000011101100 %
b11100000000000000000011101000 -
11
b11100000000000000000011101000 4
16
b111011 8
19

#690000
0!
01
06
09

#695000
1!
b11100000000000000000011110000 %
b11100000000000000000011101100 -
11
b11100000000000000000011101100 4
16
b111100 8
19

#700000
0!
01
06
09

#705000
1!
b11100000000000000000011110100 %
b11100000000000000000011110000 -
11
b11100000000000000000011110000 4
16
b111101 8
19

#710000
0!
01
06
09

#715000
1!
b11100000000000000000011111000 %
b11100000000000000000011110100 -
11
b11100000000000000000011110100 4
16
b111110 8
19

#720000
0!
01
06
09

#725000
1!
b11100000000000000000011111100 %
b11100000000000000000011111000 -
11
b11100000000000000000011111000 4
16
b111111 8
19

#730000
0!
01
06
09

#735000
1!
b11100000000000000000100000000 %
b11100000000000000000011111100 -
11
b11100000000000000000011111100 4
16
b1000000 8
19

#740000
0!
01
06
09

#745000
1!
b11100000000000000000100000100 %
b11100000000000000000100000000 -
11
b11100000000000000000100000000 4
16
b1000001 8
19

#750000
0!
01
06
09

#755000
1!
b11100000000000000000100001000 %
b11100000000000000000100000100 -
11
b11100000000000000000100000100 4
16
b1000010 8
19

#760000
0!
01
06
09

#765000
1!
b11100000000000000000100001100 %
b11100000000000000000100001000 -
11
b11100000000000000000100001000 4
16
b1000011 8
19

#770000
0!
01
06
09

#775000
1!
b11100000000000000000100010000 %
b11100000000000000000100001100 -
11
b11100000000000000000100001100 4
16
b1000100 8
19

#780000
0!
01
06
09

#785000
1!
b11100000000000000000100010100 %
b11100000000000000000100010000 -
11
b11100000000000000000100010000 4
16
b1000101 8
19

#790000
0!
01
06
09

#795000
1!
b11100000000000000000100011000 %
b11100000000000000000100010100 -
11
b11100000000000000000100010100 4
16
b1000110 8
19

#800000
0!
01
06
09

#805000
1!
b11100000000000000000100011100 %
b11100000000000000000100011000 -
11
b11100000000000000000100011000 4
16
b1000111 8
19

#810000
0!
01
06
09

#815000
1!
b11100000000000000000100100000 %
b11100000000000000000100011100 -
11
b11100000000000000000100011100 4
16
b1001000 8
19

#820000
0!
01
06
09

#825000
1!
b11100000000000000000100100100 %
b11100000000000000000100100000 -
11
b11100000000000000000100100000 4
16
b1001001 8
19

#830000
0!
01
06
09

#835000
1!
b11100000000000000000100101000 %
b11100000000000000000100100100 -
11
b11100000000000000000100100100 4
16
b1001010 8
19

#840000
0!
01
06
09

#845000
1!
b11100000000000000000100101100 %
b11100000000000000000100101000 -
11
b11100000000000000000100101000 4
16
b1001011 8
19

#850000
0!
01
06
09

#855000
1!
b11100000000000000000100110000 %
b11100000000000000000100101100 -
11
b11100000000000000000100101100 4
16
b1001100 8
19

#860000
0!
01
06
09

#865000
1!
b11100000000000000000100110100 %
b11100000000000000000100110000 -
11
b11100000000000000000100110000 4
16
b1001101 8
19

#870000
0!
01
06
09

#875000
1!
b11100000000000000000100111000 %
b11100000000000000000100110100 -
11
b11100000000000000000100110100 4
16
b1001110 8
19

#880000
0!
01
06
09

#885000
1!
b11100000000000000000100111100 %
b11100000000000000000100111000 -
11
b11100000000000000000100111000 4
16
b1001111 8
19

#890000
0!
01
06
09

#895000
1!
b11100000000000000000101000000 %
b11100000000000000000100111100 -
11
b11100000000000000000100111100 4
16
b1010000 8
19

#900000
0!
01
06
09

#905000
1!
b11100000000000000000101000100 %
b11100000000000000000101000000 -
11
b11100000000000000000101000000 4
16
b1010001 8
19

#910000
0!
01
06
09

#915000
1!
b11100000000000000000101001000 %
b11100000000000000000101000100 -
11
b11100000000000000000101000100 4
16
b1010010 8
19

#920000
0!
01
06
09

#925000
1!
b11100000000000000000101001100 %
b11100000000000000000101001000 -
11
b11100000000000000000101001000 4
16
b1010011 8
19

#930000
0!
01
06
09

#935000
1!
b11100000000000000000101010000 %
b11100000000000000000101001100 -
11
b11100000000000000000101001100 4
16
b1010100 8
19

#940000
0!
01
06
09

#945000
1!
b11100000000000000000101010100 %
b11100000000000000000101010000 -
11
b11100000000000000000101010000 4
16
b1010101 8
19

#950000
0!
01
06
09

#955000
1!
b11100000000000000000101011000 %
b11100000000000000000101010100 -
11
b11100000000000000000101010100 4
16
b1010110 8
19

#960000
0!
01
06
09

#965000
1!
b11100000000000000000101011100 %
b11100000000000000000101011000 -
11
b11100000000000000000101011000 4
16
b1010111 8
19

#970000
0!
01
06
09

#975000
1!
b11100000000000000000101100000 %
b11100000000000000000101011100 -
11
b11100000000000000000101011100 4
16
b1011000 8
19

#980000
0!
01
06
09

#985000
1!
b11100000000000000000101100100 %
b11100000000000000000101100000 -
11
b11100000000000000000101100000 4
16
b1011001 8
19

#990000
0!
01
06
09

#995000
1!
b11100000000000000000101101000 %
b11100000000000000000101100100 -
11
b11100000000000000000101100100 4
16
b1011010 8
19

